INDEX VERSION 1.129+G:\AutomationTesting\Demoproject_updated\.metadata\.plugins\org.eclipse.jdt.core
2690778029.index
1870255979.index
1923297441.index
1821389151.index
3349413686.index
51467596.index
452330869.index
1429456332.index
3618673065.index
4020602821.index
1598370351.index
96710607.index
2959957318.index
3414683811.index
2899965704.index
2345470644.index
527410858.index
2292250293.index
4199532146.index
3706135349.index
27189832.index
185975254.index
1233791618.index
